[
  {
    "labels": ["Positive", "Others"],
    "data": [70, 30]
  },
  {
    "labels": ["Netral", "Others"],
    "data": [20, 80]
  },
  {
    "labels": ["Negative", "Others"],
    "data": [10, 90]
  },
  {
    "labels": ["Kompas", "Others"],
    "data": [65, 35]
  },
  {
    "labels": ["Media Indonesia", "Others"],
    "data": [65, 35]
  },
  {
    "labels": ["Jakarta Post", "Others"],
    "data": [65, 35]
  },
  {
    "labels": ["Kontan", "Others"],
    "data": [65, 35]
  },
  {
    "labels": ["Republika", "Others"],
    "data": [65, 35]
  },
  {
    "labels": ["Detik.com", "Others"],
    "data": [65, 35]
  },
  {
    "labels": ["AntaraNews", "Others"],
    "data": [65, 35]
  },
  {
    "labels": ["JPNN.com", "Others"],
    "data": [65, 35]
  },
  {
    "labels": ["Paragraf.co", "Others"],
    "data": [65, 35]
  },
  {
    "labels": ["Kumparan.com", "Others"],
    "data": [65, 35]
  }
]
