{
  "min": 103,
  "max": 998,
  "words": [
    ["ugtem",998],
    ["verda",972],
    ["non",960],
    ["amet",959],
    ["lectus",955],
    ["sit",945],
    ["Suspendisse",937],
    ["ultricies",931],
    ["elit",924],
    ["eut",923],
    ["mauris",923],
    ["vel",913],
    ["augue",910],
    ["dui",900],
    ["eget",897],
    ["enim",897],
    ["orci",880],
    ["quis",864],
    ["vestibulum",862],
    ["aliquam",856],
    ["et",850],
    ["laoreet",842],
    ["nec",821],
    ["pellentesque",800],
    ["porttitor",798],
    ["rhoncus",764],
    ["sapien",750],
    ["sem",745],
    ["vitae",736],
    ["Cras",715],
    ["accumsan",710],
    ["dictum",701],
    ["leo",700],
    ["lorem",690],
    ["magna",674],
    ["mattis",650],
    ["morbi",648],
    ["nisi",639],
    ["odio",635],
    ["tempor",629],
    ["tincidunt",625],
    ["tortor",609],
    ["ullamcorper",609],
    ["consequat",603],
    ["dignissim",598],
    ["eros",593],
    ["euismod",592],
    ["ipsum",586],
    ["neque",583],
    ["nunc",565],
    ["pharetra",563],
    ["quam",547],
    ["sollicitudin",533],
    ["Curabitur",533],
    ["Donec",521],
    ["Maecenas",520],
    ["Praesent",519],
    ["Vivamus",517],
    ["ante",511],
    ["arcu",508],
    ["condimentum",485],
    ["efficitur",484],
    ["elementum",468],
    ["ex",466],
    ["lacus",454],
    ["malesuada",453],
    ["mi",449],
    ["nisl",448],
    ["ornare",427],
    ["posuere",394],
    ["risus",383],
    ["sagittis",368],
    ["urna",356],
    ["venenatis",340],
    ["Proin",327],
    ["bibendum",327],
    ["congue",310],
    ["convallis",294],
    ["dolor",292],
    ["est",267],
    ["faucibus",249],
    ["gravida",248],
    ["iaculis",235],
    ["libero",227],
    ["lobortis",221],
    ["luctus",220],
    ["massa",220],
    ["nulla",217],
    ["porta",216],
    ["tellus",202],
    ["turpis",195],
    ["vehicula",194],
    ["Aenean",182],
    ["Integer",176],
    ["aliquet",159],
    ["auctor",147],
    ["cursus",143],
    ["diam",121],
    ["egestas",120],
    ["felis",114],
    ["fringilla",103]
  ]
}
